{
  "__type__": "cc.AnimationClip",
  "_name": "name",
  "_objFlags": 0,
  "_native": "",
  "_duration": 1,
  "sample": 60,
  "speed": 1,
  "wrapMode": 1,
  "curveData": {
    "props": {
      "opacity": [
        {
          "frame": 0,
          "value": 0
        },
        {
          "frame": 1,
          "value": 255
        }
      ]
    }
  },
  "events": []
}