^E:\CODE\STUDY\ENGINE\GLAD.C
/c /ZI /JMC /nologo /W3 /WX- /diagnostics:column /sdl /Od /D _MBCS /Gm- /EHsc /RTC1 /MDd /GS /fp:precise /permissive- /Zc:wchar_t /Zc:forScope /Zc:inline /Fo"X64\DEBUG\\" /Fd"X64\DEBUG\VC142.PDB" /Gd /TC /FC E:\CODE\STUDY\ENGINE\GLAD.C
^E:\CODE\STUDY\ENGINE\ENGINE\ENGINE\MAIN.CPP
/c /ZI /JMC /nologo /W3 /WX- /diagnostics:column /sdl /Od /D _MBCS /Gm- /EHsc /RTC1 /MDd /GS /fp:precise /permissive- /Zc:wchar_t /Zc:forScope /Zc:inline /Fo"X64\DEBUG\\" /Fd"X64\DEBUG\VC142.PDB" /Gd /TP /FC E:\CODE\STUDY\ENGINE\ENGINE\ENGINE\MAIN.CPP
